{"metadata":{"datasets":["public-global-fishing-events:v4.0"],"vessels":["73e866c9f-f06f-5274-c045-96901220ee82"],"dateRange":{"from":"2025-12-01T00:00:00.000Z","to":"2026-02-28T23:59:59.000Z"}},"limit":3,"offset":0,"nextOffset":3,"total":130,"entries":[{"start":"2026-02-24T17:27:48.000Z","end":"2026-02-24T23:25:09.000Z","id":"b38e5aa82d44c483931e62954eea7510","type":"fishing","position":{"lat":-20.1073,"lon":-96.4173},"regions":{"mpa":[],"eez":[],"rfmo":["ACAP","IATTC","IWC","SPRFMO"],"fao":["87.2.6","87.2","87"],"majorFao":["87"],"eez12Nm":[],"highSeas":["63203"],"mpaNoTakePartial":[],"mpaNoTake":[]},"boundingBox":[-96.49492666666667,-20.170323333333332,-96.2285,-20.08681],"distances":{"startDistanceFromShoreKm":1509,"endDistanceFromShoreKm":1536,"startDistanceFromPortKm":1514.199875,"endDistanceFromPortKm":1541.837},"vessel":{"id":"73e866c9f-f06f-5274-c045-96901220ee82","name":"RONG HENG 13","ssvid":"412354269","flag":"CHN","type":"fishing","publicAuthorizations":[{"hasPubliclyListedAuthorization":"pending","rfmo":"SPRFMO"},{"hasPubliclyListedAuthorization":"pending","rfmo":"IATTC"}],"nextPort":null},"fishing":{"totalDistanceKm":35.43735382448759,"averageSpeedKnots":3.416326503364407,"averageDurationHours":null,"potentialRisk":false,"vesselPublicAuthorizationStatus":"pending_info"}},{"start":"2026-02-24T06:45:45.000Z","end":"2026-02-24T08:30:22.000Z","id":"c9299742ee822af9b1cb78840e215bd6","type":"fishing","position":{"lat":-20.6525,"lon":-95.3931},"regions":{"mpa":[],"eez":[],"rfmo":["IWC","SPRFMO","ACAP","IATTC"],"fao":["87","87.2","87.2.6"],"majorFao":["87"],"eez12Nm":[],"highSeas":["63203"],"mpaNoTakePartial":[],"mpaNoTake":[]},"boundingBox":[-95.39398,-20.704816666666666,-95.39160666666666,-20.59547],"distances":{"startDistanceFromShoreKm":1576,"endDistanceFromShoreKm":1582,"startDistanceFromPortKm":1581.985625,"endDistanceFromPortKm":1587.453125},"vessel":{"id":"73e866c9f-f06f-5274-c045-96901220ee82","name":"RONG HENG 13","ssvid":"412354269","flag":"CHN","type":"fishing","publicAuthorizations":[{"hasPubliclyListedAuthorization":"pending","rfmo":"SPRFMO"},{"hasPubliclyListedAuthorization":"pending","rfmo":"IATTC"}],"nextPort":null},"fishing":{"totalDistanceKm":12.203493938662026,"averageSpeedKnots":3.9257142884390688,"averageDurationHours":null,"potentialRisk":false,"vesselPublicAuthorizationStatus":"pending_info"}},{"start":"2026-02-24T05:46:15.000Z","end":"2026-02-24T06:29:22.000Z","id":"ebc32ff8e50955eb0d320d25f1b6fa03","type":"fishing","position":{"lat":-20.5456,"lon":-95.3964},"regions":{"mpa":[],"eez":[],"rfmo":["ACAP","IWC","IATTC","SPRFMO"],"fao":["87.2","87.2.6","87"],"majorFao":["87"],"eez12Nm":[],"highSeas":["63203"],"mpaNoTakePartial":[],"mpaNoTake":[]},"boundingBox":[-95.39725333333334,-20.571658333333332,-95.39548,-20.508048333333335],"distances":{"startDistanceFromShoreKm":1583,"endDistanceFromShoreKm":1586,"startDistanceFromPortKm":1588.200625,"endDistanceFromPortKm":1591.52075},"vessel":{"id":"73e866c9f-f06f-5274-c045-96901220ee82","name":"RONG HENG 13","ssvid":"412354269","flag":"CHN","type":"fishing","publicAuthorizations":[{"hasPubliclyListedAuthorization":"pending","rfmo":"IATTC"},{"hasPubliclyListedAuthorization":"pending","rfmo":"SPRFMO"}],"nextPort":null},"fishing":{"totalDistanceKm":7.088457909913608,"averageSpeedKnots":4.887499970197677,"averageDurationHours":null,"potentialRisk":false,"vesselPublicAuthorizationStatus":"pending_info"}}]}